{
  "project_info": {
    "project_number": "51684953869",
    "project_id": "gymdoctor",
    "storage_bucket": "gymdoctor.appspot.com"
  },
  "client": [
    {
      "client_info": {
        "mobilesdk_app_id": "1:51684953869:android:98c3cfad8f1f083ac9aa44",
        "android_client_info": {
          "package_name": "com.appsums.doctor"
        }
      },
      "oauth_client": [
        {
          "client_id": "51684953869-s9m45mc624v3jeq705u5kfnd769pupre.apps.googleusercontent.com",
          "client_type": 3
        }
      ],
      "api_key": [
        {
          "current_key": "AIzaSyDfOO5Uf15uxOc1sjYlgx5jRtOCkrw01yo"
        }
      ],
      "services": {
        "appinvite_service": {
          "other_platform_oauth_client": [
            {
              "client_id": "51684953869-s9m45mc624v3jeq705u5kfnd769pupre.apps.googleusercontent.com",
              "client_type": 3
            }
          ]
        }
      }
    },
    {
      "client_info": {
        "mobilesdk_app_id": "1:51684953869:android:aebbc57df2d557fac9aa44",
        "android_client_info": {
          "package_name": "com.appsums.patient"
        }
      },
      "oauth_client": [
        {
          "client_id": "51684953869-s9m45mc624v3jeq705u5kfnd769pupre.apps.googleusercontent.com",
          "client_type": 3
        }
      ],
      "api_key": [
        {
          "current_key": "AIzaSyDfOO5Uf15uxOc1sjYlgx5jRtOCkrw01yo"
        }
      ],
      "services": {
        "appinvite_service": {
          "other_platform_oauth_client": [
            {
              "client_id": "51684953869-s9m45mc624v3jeq705u5kfnd769pupre.apps.googleusercontent.com",
              "client_type": 3
            }
          ]
        }
      }
    }
  ],
  "configuration_version": "1"
}